1 10 20
10 1 20
100 200 125
200 100 125
201 210 89
210 201 89
900 1000 174
1000 900 174
5000 4000 215
4000 5000 215
133 399 144
399 133 144
72 216 125
216 72 125
61 183 125
183 61 125
46 138 122
138 46 122
101 303 128
303 101 128
106 318 131
318 106 131
63 189 125
189 63 125
33 11 112
11 33 112
29 87 116
87 29 116
18 6 21
6 18 21
38 114 119
114 38 119
129 387 144
387 129 144
26 78 116
78 26 116
44 132 122
132 44 122
20 10 21
10 20 21
75 225 125
225 75 125
108 324 131
324 108 131
95 285 128
285 95 128
150 50 122
50 150 122
92 276 128
276 92 128
136 408 144
408 136 144
110 330 144
330 110 144
123 369 144
369 123 144
7 77 116
77 7 116
80 240 128
240 80 128
114 342 144
342 114 144
55 165 122
165 55 122
21 63 113
63 21 113
119 357 144
357 119 144
81 243 128
243 81 128
142 426 144
426 142 144
99 297 128
297 99 128
91 273 128
273 91 128
48 144 122
144 48 122
67 201 125
201 67 125
49 147 122
147 49 122
98 294 128
294 98 128
16 48 112
48 16 112
111 333 144
333 111 144
41 123 119
123 41 119
4 400 144
400 4 144
105 315 131
315 105 131
47 141 122
141 47 122
110 330 144
330 110 144
54 162 122
162 54 122
86 258 128
258 86 128
45 135 122
135 45 122
90 270 128
270 90 128
27 81 116
81 27 116
69 207 125
207 69 125
62 186 125
186 62 125
84 252 128
252 84 128
32 96 116
96 32 116
64 192 125
192 64 125
2 200 125
200 2 125
79 237 128
237 79 128
22 66 113
66 22 113
3 300 128
300 3 128
58 174 125
174 58 125
65 195 125
195 65 125
40 120 119
120 40 119
133 399 144
399 133 144
106 318 131
318 106 131
63 189 125
189 63 125
11 33 112
33 11 112
87 261 128
261 87 128
72 216 125
216 72 125
74 222 125
222 74 125
10 20 21
20 10 21
14 42 112
42 14 112
41 123 119
123 41 119
60 180 125
180 60 125
12 36 112
36 12 112
121 363 144
363 121 144
24 8 21
8 24 21
7 85 116
85 7 116
12 56 113
56 12 113
9 42 112
42 9 112
5 27 112
27 5 112
1 3 8
3 1 8
6 34 112
34 6 112
4 22 21
22 4 21
10 62 113
62 10 113
8 47 112
47 8 112
2 11 20
11 2 20
13 76 116
76 13 116
3 17 20
17 3 20
14 88 116
88 14 116
1852 6739 262
6739 1852 262
3984 9126 262
9126 3984 262
7491 5368 262
5368 7491 262
6123 2749 238
2749 6123 238
3897 7452 262
7452 3897 262
8726 6193 257
6193 8726 257
4269 9873 262
9873 4269 262
