...................
----------------------------------------------------------------------
Ran 19 tests in 1.284s

OK
Name             Stmts   Miss Branch BrPart  Cover   Missing
------------------------------------------------------------
Collatz.py          32      0     12      0   100%
TestCollatz.py      83      0      0      0   100%
------------------------------------------------------------
TOTAL              115      0     12      0   100%
