82685 340294 443
15959 53178 340
103414 827649 509
93895 936155 525
420523 916774 525
274143 962180 525
538709 431433 470
273503 171856 443
879849 445628 525
599346 326499 470
977609 196183 525
918441 710753 525
729207 401384 509
425257 571843 470
609140 696834 509
497534 343772 449
471485 864562 525
155444 736960 509
7685 685329 509
927772 400798 525
671926 487441 509
869877 405456 525
881471 517546 525
674153 804699 504
96448 840944 525
710374 493456 509
684718 768547 504
399521 864657 525
874301 937037 476
364478 867258 525
243491 794682 509
208364 596946 470
994660 792009 525
764778 147489 509
48567 135816 354
400315 726997 509
896432 629594 525
631640 776311 504
252204 52896 443
975739 665230 525
76133 953706 525
676963 549072 509
910062 483835 525
320723 542108 470
620043 419225 470
719935 486872 509
492151 757162 509
793800 422427 509
808840 495924 509
156378 744979 509
592161 187446 470
726750 709470 411
682510 923753 525
598935 834574 509
566923 684842 509
540013 469943 470
481191 262824 449
530735 735010 509
204074 470253 449
164991 6436 383
683550 451089 509
928040 751721 525
29444 85498 351
473944 386650 449
564484 295134 470
699415 958795 525
662573 265436 509
965574 889011 507
783689 678198 504
160689 358991 443
575816 83027 470
976897 50247 525
37572 223517 386
140154 515757 470
998828 145826 525
551645 72688 470
283310 528558 470
108408 472214 449
494944 338113 449
216595 705194 509
124640 52339 354
746393 832968 468
307522 246986 407
857338 401625 525
769391 82258 509
111926 960636 525
303769 559675 470
906900 600743 525
970109 308548 525
486785 126480 449
724218 728582 362
802444 593787 509
382753 870066 525
921372 806128 525
291012 263823 407
604849 303516 470
378777 337682 441
877242 534819 525
58059 186803 383
397111 940864 525
836872 614198 509
277988 909689 525
636058 755604 504
393311 268637 441
80260 638408 509
415158 99053 449
40995 89386 351
491381 410155 444
318449 737639 509
250545 949514 525
513905 878159 525
42201 506238 449
137503 372060 443
968554 343388 525
494413 733997 509
419297 476139 444
688736 56861 509
477462 13439 449
108437 9825 354
599586 572352 434
386021 782154 509
654093 116437 509
937000 633244 525
266732 898693 525
920715 656749 525
775219 613247 509
948726 335307 525
181556 487919 449
419073 988559 525
821040 994586 525
81930 373967 443
927083 62230 525
572841 717165 509
765378 740284 424
708718 888336 525
579242 264500 470
966336 828924 525
725134 559739 509
133782 491867 449
854068 658982 525
912031 163551 525
414954 447827 418
98311 345442 443
964076 255801 525
486505 109152 449
239055 395515 441
622603 429967 470
250706 385419 441
640392 715530 504
19504 282986 443
408163 804067 509
654773 345006 509
515055 137908 470
45926 880933 525
636723 587154 509
501141 67406 449
421587 826180 509
991865 426547 525
876564 81088 525
508800 945025 525
239425 473898 449
311247 438731 449
255568 645885 509
247850 758527 509
188104 614072 470
422258 77731 449
109275 480347 449
549683 772581 509
893653 635535 525
36713 425939 449
31056 842517 525
118415 569767 470
192976 745542 509
91727 466935 449
995496 454450 525
18873 890287 525
783261 886747 525
434669 180374 449
527570 295262 470
214558 181719 373
426404 70810 449
776699 257931 509
636116 281867 509
988931 407969 525
556160 345689 470
403931 844112 525
443057 130114 449
490254 582431 470
250473 97301 443
311990 282827 389
284541 588693 470
402088 483601 449
736148 737676 380
356948 876309 525
866918 799378 525
122809 870278 525
873131 889086 445
349034 230853 441
547667 46383 470
362419 572037 470

